{
  "clickable_minimum_required": "6.24.1",
  "builder": "precompiled",
  "restrict_arch": "arm64",
  "dependencies_target": [
    "libjsoncpp1"
  ],
  "ignore": [
    "bundle",
    "build",
    "LICENSE",
    "README.md"
  ],
  "install_bin": "bundle/fluffychat",
  "install_lib": [
    "bundle/lib/*",
    "/usr/lib/${ARCH_TRIPLET}/libjsoncpp.so.*"
  ],
  "install_data": {
    "bundle/data": ""
  }
}
